<svg width="28" height="34" viewBox="0 0 28 34" fill="none" xmlns="http://www.w3.org/2000/svg">
<path d="M1.37683 4.37682V29.8841C1.37683 30.7297 1.71275 31.5407 2.31069 32.1386C2.90864 32.7365 3.71962 33.0725 4.56524 33.0725H23.6957C24.5413 33.0725 25.3523 32.7365 25.9502 32.1386C26.5482 31.5407 26.8841 30.7297 26.8841 29.8841V11.2988C26.884 10.8741 26.7991 10.4536 26.6343 10.0621C26.4695 9.67065 26.2281 9.31605 25.9244 9.01914L18.8461 2.09711C18.2504 1.51468 17.4505 1.18852 16.6174 1.18842H4.56524C3.71962 1.18842 2.90864 1.52434 2.31069 2.12228C1.71275 2.72022 1.37683 3.5312 1.37683 4.37682V4.37682Z" stroke="black" stroke-width="1.66667" stroke-linecap="round" stroke-linejoin="round"/>
<path d="M9.34784 18.7246H18.9131" stroke="black" stroke-width="1.66667" stroke-linecap="round" stroke-linejoin="round"/>
<path d="M9.34784 25.1015H14.1304" stroke="black" stroke-width="1.66667" stroke-linecap="round" stroke-linejoin="round"/>
<path d="M17.3188 1.18842V7.56523C17.3188 8.41084 17.6548 9.22183 18.2527 9.81977C18.8507 10.4177 19.6616 10.7536 20.5073 10.7536H26.8841" stroke="black" stroke-width="1.66667" stroke-linejoin="round"/>
</svg>
